<svg width="577" height="35" viewBox="0 0 577 35" fill="none" xmlns="http://www.w3.org/2000/svg">
<path d="M0 18C0 18.3716 0.143375 18.728 0.398583 18.9907C0.653792 19.2535 0.999929 19.4011 1.36085 19.4011C1.72177 19.4011 2.06791 19.2535 2.32311 18.9907C2.57832 18.728 2.7217 18.3716 2.7217 18C2.7217 17.6284 2.86507 17.272 3.12028 17.0093C3.37549 16.7465 3.72163 16.5989 4.08255 16.5989C4.44347 16.5989 4.7896 16.7465 5.04481 17.0093C5.30002 17.272 5.4434 17.6284 5.4434 18V28.971C5.4434 29.3426 5.58677 29.699 5.84198 29.9618C6.09719 30.2245 6.44333 30.3721 6.80425 30.3721C7.16516 30.3721 7.5113 30.2245 7.76651 29.9618C8.02172 29.699 8.16509 29.3426 8.16509 28.971V10.0073C8.16509 9.63568 8.30847 9.27931 8.56368 9.01655C8.81889 8.75379 9.16502 8.60618 9.52594 8.60618C9.88686 8.60618 10.233 8.75379 10.4882 9.01655C10.7434 9.27931 10.8868 9.63568 10.8868 10.0073V24.2497C10.8868 24.6213 11.0302 24.9776 11.2854 25.2404C11.5406 25.5032 11.8867 25.6508 12.2476 25.6508C12.6086 25.6508 12.9547 25.5032 13.2099 25.2404C13.4651 24.9776 13.6085 24.6213 13.6085 24.2497V12.1949C13.6085 11.8233 13.7519 11.4669 14.0071 11.2042C14.2623 10.9414 14.6084 10.7938 14.9693 10.7938C15.3303 10.7938 15.6764 10.9414 15.9316 11.2042C16.1868 11.4669 16.3302 11.8233 16.3302 12.1949V29.5116C16.3302 29.8832 16.4736 30.2396 16.7288 30.5024C16.984 30.7651 17.3301 30.9127 17.691 30.9127C18.052 30.9127 18.3981 30.7651 18.6533 30.5024C18.9085 30.2396 19.0519 29.8832 19.0519 29.5116V3.91506C19.0519 3.54346 19.1953 3.18709 19.4505 2.92433C19.7057 2.66157 20.0518 2.51396 20.4127 2.51396C20.7737 2.51396 21.1198 2.66157 21.375 2.92433C21.6302 3.18709 21.7736 3.54346 21.7736 3.91506V26.0407C21.7736 26.4123 21.917 26.7687 22.1722 27.0314C22.4274 27.2942 22.7735 27.4418 23.1344 27.4418C23.4954 27.4418 23.8415 27.2942 24.0967 27.0314C24.3519 26.7687 24.4953 26.4123 24.4953 26.0407V9.68477C24.4953 9.31318 24.6387 8.9568 24.8939 8.69405C25.1491 8.43129 25.4952 8.28367 25.8561 8.28367C26.2171 8.28367 26.5632 8.43129 26.8184 8.69405C27.0736 8.9568 27.217 9.31318 27.217 9.68477V25.1338C27.217 25.5054 27.3604 25.8618 27.6156 26.1246C27.8708 26.3873 28.2169 26.5349 28.5778 26.5349C28.9387 26.5349 29.2849 26.3873 29.5401 26.1246C29.7953 25.8618 29.9387 25.5054 29.9387 25.1338V11.4177C29.9387 11.0461 30.0821 10.6897 30.3373 10.427C30.5925 10.1642 30.9386 10.0166 31.2995 10.0166C31.6604 10.0166 32.0066 10.1642 32.2618 10.427C32.517 10.6897 32.6604 11.0461 32.6604 11.4177V27.0166C32.6604 27.3882 32.8038 27.7446 33.059 28.0074C33.3142 28.2701 33.6603 28.4177 34.0212 28.4177C34.3821 28.4177 34.7283 28.2701 34.9835 28.0074C35.2387 27.7446 35.3821 27.3882 35.3821 27.0166V8.7021C35.3821 8.33051 35.5254 7.97413 35.7807 7.71138C36.0359 7.44862 36.382 7.301 36.7429 7.301C37.1038 7.301 37.45 7.44862 37.7052 7.71138C37.9604 7.97413 38.1038 8.33051 38.1038 8.7021V27.3232C38.1038 27.6947 38.2471 28.0511 38.5024 28.3139C38.7576 28.5766 39.1037 28.7243 39.4646 28.7243C39.8255 28.7243 40.1717 28.5766 40.4269 28.3139C40.6821 28.0511 40.8255 27.6947 40.8255 27.3232V7.08116C40.8255 6.70957 40.9688 6.35319 41.2241 6.09043C41.4793 5.82768 41.8254 5.68006 42.1863 5.68006C42.5472 5.68006 42.8934 5.82768 43.1486 6.09043C43.4038 6.35319 43.5472 6.70957 43.5472 7.08116V25.7502C43.5472 26.1218 43.6905 26.4782 43.9458 26.7409C44.201 27.0037 44.5471 27.1513 44.908 27.1513C45.2689 27.1513 45.6151 27.0037 45.8703 26.7409C46.1255 26.4782 46.2689 26.1218 46.2689 25.7502V9.65867C46.2689 9.28707 46.4122 8.9307 46.6675 8.66794C46.9227 8.40518 47.2688 8.25757 47.6297 8.25757C47.9906 8.25757 48.3368 8.40518 48.592 8.66794C48.8472 8.9307 48.9906 9.28707 48.9906 9.65867V28.4894C48.9906 28.861 49.1339 29.2174 49.3892 29.4801C49.6444 29.7429 49.9905 29.8905 50.3514 29.8905C50.7123 29.8905 51.0585 29.7429 51.3137 29.4801C51.5689 29.2174 51.7123 28.861 51.7123 28.4894V7.61502C51.7123 7.24342 51.8556 6.88705 52.1108 6.62429C52.3661 6.36153 52.7122 6.21392 53.0731 6.21392C53.434 6.21392 53.7802 6.36153 54.0354 6.62429C54.2906 6.88705 54.434 7.24342 54.434 7.61502V28.0886C54.434 28.4602 54.5773 28.8165 54.8325 29.0793C55.0878 29.3421 55.4339 29.4897 55.7948 29.4897C56.1557 29.4897 56.5019 29.3421 56.7571 29.0793C57.0123 28.8165 57.1557 28.4602 57.1557 28.0886V7.96952C57.1557 7.59793 57.299 7.24155 57.5542 6.97879C57.8095 6.71604 58.1556 6.56842 58.5165 6.56842C58.8774 6.56842 59.2236 6.71604 59.4788 6.97879C59.734 7.24155 59.8774 7.59793 59.8774 7.96952V30.0724C59.8774 30.444 60.0207 30.8004 60.2759 31.0632C60.5312 31.3259 60.8773 31.4735 61.2382 31.4735C61.5991 31.4735 61.9453 31.3259 62.2005 31.0632C62.4557 30.8004 62.5991 30.444 62.5991 30.0724V9.28985C62.5991 8.91826 62.7424 8.56188 62.9976 8.29912C63.2528 8.03637 63.599 7.88875 63.9599 7.88875C64.3208 7.88875 64.667 8.03637 64.9222 8.29912C65.1774 8.56188 65.3208 8.91826 65.3208 9.28985V31.306C65.3208 31.6776 65.4641 32.034 65.7193 32.2968C65.9745 32.5595 66.3207 32.7071 66.6816 32.7071C67.0425 32.7071 67.3887 32.5595 67.6439 32.2968C67.8991 32.034 68.0425 31.6776 68.0425 31.306V6.76623C68.0425 6.39464 68.1858 6.03826 68.441 5.77551C68.6962 5.51275 69.0424 5.36513 69.4033 5.36513C69.7642 5.36513 70.1104 5.51275 70.3656 5.77551C70.6208 6.03826 70.7642 6.39464 70.7642 6.76623V31.7549C70.7642 32.1264 70.9075 32.4828 71.1627 32.7456C71.4179 33.0083 71.7641 33.156 72.125 33.156C72.4859 33.156 72.8321 33.0083 73.0873 32.7456C73.3425 32.4828 73.4858 32.1264 73.4858 31.7549V4.43376C73.4858 4.06217 73.6292 3.70579 73.8844 3.44303C74.1396 3.18028 74.4858 3.03266 74.8467 3.03266C75.2076 3.03266 75.5538 3.18028 75.809 3.44303C76.0642 3.70579 76.2075 4.06217 76.2075 4.43376V31.461C76.2075 31.8326 76.3509 32.1889 76.6061 32.4517C76.8613 32.7145 77.2075 32.8621 77.5684 32.8621C77.9293 32.8621 78.2755 32.7145 78.5307 32.4517C78.7859 32.1889 78.9292 31.8326 78.9292 31.461V8.03773C78.9292 7.66613 79.0726 7.30976 79.3278 7.047C79.583 6.78424 79.9292 6.63663 80.2901 6.63663C80.651 6.63663 80.9971 6.78424 81.2524 7.047C81.5076 7.30976 81.6509 7.66613 81.6509 8.03773V28.9668C81.6509 29.3384 81.7943 29.6948 82.0495 29.9576C82.3047 30.2203 82.6509 30.3679 83.0118 30.3679C83.3727 30.3679 83.7188 30.2203 83.9741 29.9576C84.2293 29.6948 84.3726 29.3384 84.3726 28.9668V6.72666C84.3726 6.35506 84.516 5.99869 84.7712 5.73593C85.0264 5.47317 85.3726 5.32556 85.7335 5.32556C86.0944 5.32556 86.4405 5.47317 86.6958 5.73593C86.951 5.99869 87.0943 6.35506 87.0943 6.72666V29.0519C87.0943 29.4235 87.2377 29.7798 87.4929 30.0426C87.7481 30.3054 88.0943 30.453 88.4552 30.453C88.8161 30.453 89.1622 30.3054 89.4175 30.0426C89.6727 29.7798 89.816 29.4235 89.816 29.0519V6.20375C89.816 5.83215 89.9594 5.47578 90.2146 5.21302C90.4698 4.95026 90.816 4.80265 91.1769 4.80265C91.5378 4.80265 91.8839 4.95026 92.1392 5.21302C92.3944 5.47578 92.5377 5.83215 92.5377 6.20375V25.2879C92.5377 25.6595 92.6811 26.0159 92.9363 26.2787C93.1915 26.5414 93.5377 26.689 93.8986 26.689C94.2595 26.689 94.6056 26.5414 94.8608 26.2787C95.1161 26.0159 95.2594 25.6595 95.2594 25.2879V9.07429C95.2594 8.70269 95.4028 8.34632 95.658 8.08356C95.9132 7.8208 96.2594 7.67319 96.6203 7.67319C96.9812 7.67319 97.3273 7.8208 97.5825 8.08356C97.8378 8.34632 97.9811 8.70269 97.9811 9.07429V28.7563C97.9811 29.1279 98.1245 29.4843 98.3797 29.747C98.6349 30.0098 98.9811 30.1574 99.342 30.1574C99.7029 30.1574 100.049 30.0098 100.304 29.747C100.559 29.4843 100.703 29.1279 100.703 28.7563V7.84237C100.703 7.47078 100.846 7.1144 101.101 6.85164C101.357 6.58889 101.703 6.44127 102.064 6.44127C102.425 6.44127 102.771 6.58889 103.026 6.85164C103.281 7.1144 103.425 7.47078 103.425 7.84237V25.0707C103.425 25.4423 103.568 25.7986 103.823 26.0614C104.078 26.3242 104.424 26.4718 104.785 26.4718C105.146 26.4718 105.492 26.3242 105.748 26.0614C106.003 25.7986 106.146 25.4423 106.146 25.0707V9.17449C106.146 8.8029 106.29 8.44652 106.545 8.18376C106.8 7.92101 107.146 7.77339 107.507 7.77339C107.868 7.77339 108.214 7.92101 108.469 8.18376C108.725 8.44652 108.868 8.8029 108.868 9.17449V28.4237C108.868 28.7953 109.011 29.1517 109.267 29.4144C109.522 29.6772 109.868 29.8248 110.229 29.8248C110.59 29.8248 110.936 29.6772 111.191 29.4144C111.446 29.1517 111.59 28.7953 111.59 28.4237V6.29216C111.59 5.92057 111.733 5.56419 111.988 5.30143C112.243 5.03868 112.59 4.89106 112.95 4.89106C113.311 4.89106 113.658 5.03868 113.913 5.30143C114.168 5.56419 114.311 5.92057 114.311 6.29216V29.5285C114.311 29.9001 114.455 30.2564 114.71 30.5192C114.965 30.782 115.311 30.9296 115.672 30.9296C116.033 30.9296 116.379 30.782 116.634 30.5192C116.89 30.2564 117.033 29.9001 117.033 29.5285V4.70574C117.033 4.33415 117.176 3.97777 117.432 3.71502C117.687 3.45226 118.033 3.30464 118.394 3.30464C118.755 3.30464 119.101 3.45226 119.356 3.71502C119.611 3.97777 119.755 4.33415 119.755 4.70574V27.1371C119.755 27.5087 119.898 27.865 120.153 28.1278C120.409 28.3905 120.755 28.5382 121.116 28.5382C121.476 28.5382 121.823 28.3905 122.078 28.1278C122.333 27.865 122.476 27.5087 122.476 27.1371V8.60864C122.476 8.23704 122.62 7.88066 122.875 7.61791C123.13 7.35515 123.476 7.20754 123.837 7.20754C124.198 7.20754 124.544 7.35515 124.8 7.61791C125.055 7.88066 125.198 8.23704 125.198 8.60864V28.7799C125.198 29.1515 125.341 29.5079 125.597 29.7706C125.852 30.0334 126.198 30.181 126.559 30.181C126.92 30.181 127.266 30.0334 127.521 29.7706C127.776 29.5079 127.92 29.1515 127.92 28.7799V8.78968C127.92 8.41808 128.063 8.06171 128.318 7.79895C128.574 7.53619 128.92 7.38858 129.281 7.38858C129.642 7.38858 129.988 7.53619 130.243 7.79895C130.498 8.06171 130.642 8.41808 130.642 8.78968V27.7408C130.642 28.1124 130.785 28.4688 131.04 28.7315C131.295 28.9943 131.641 29.1419 132.002 29.1419C132.363 29.1419 132.709 28.9943 132.965 28.7315C133.22 28.4688 133.363 28.1124 133.363 27.7408V7.70512C133.363 7.33352 133.507 6.97715 133.762 6.71439C134.017 6.45163 134.363 6.30402 134.724 6.30402C135.085 6.30402 135.431 6.45163 135.686 6.71439C135.942 6.97715 136.085 7.33352 136.085 7.70512V30.2526C136.085 30.6242 136.228 30.9806 136.483 31.2434C136.739 31.5061 137.085 31.6537 137.446 31.6537C137.807 31.6537 138.153 31.5061 138.408 31.2434C138.663 30.9806 138.807 30.6242 138.807 30.2526V5.50316C138.807 5.13157 138.95 4.77519 139.205 4.51243C139.46 4.24968 139.807 4.10206 140.167 4.10206C140.528 4.10206 140.875 4.24968 141.13 4.51243C141.385 4.77519 141.528 5.13157 141.528 5.50316V31.1191C141.528 31.4907 141.672 31.8471 141.927 32.1098C142.182 32.3726 142.528 32.5202 142.889 32.5202C143.25 32.5202 143.596 32.3726 143.851 32.1098C144.107 31.8471 144.25 31.4907 144.25 31.1191V6.80749C144.25 6.4359 144.393 6.07952 144.649 5.81677C144.904 5.55401 145.25 5.40639 145.611 5.40639C145.972 5.40639 146.318 5.55401 146.573 5.81677C146.828 6.07952 146.972 6.4359 146.972 6.80749V29.5074C146.972 29.879 147.115 30.2354 147.37 30.4982C147.625 30.7609 147.972 30.9085 148.333 30.9085C148.693 30.9085 149.04 30.7609 149.295 30.4982C149.55 30.2354 149.693 29.879 149.693 29.5074V6.40079C149.693 6.02919 149.837 5.67282 150.092 5.41006C150.347 5.1473 150.693 4.99968 151.054 4.99968C151.415 4.99968 151.761 5.1473 152.017 5.41006C152.272 5.67282 152.415 6.02919 152.415 6.40079V26.6158C152.415 26.9874 152.558 27.3438 152.814 27.6066C153.069 27.8693 153.415 28.0169 153.776 28.0169C154.137 28.0169 154.483 27.8693 154.738 27.6066C154.993 27.3438 155.137 26.9874 155.137 26.6158V8.01668C155.137 7.64508 155.28 7.28871 155.535 7.02595C155.791 6.76319 156.137 6.61558 156.498 6.61558C156.859 6.61558 157.205 6.76319 157.46 7.02595C157.715 7.28871 157.858 7.64508 157.858 8.01668V29.5613C157.858 29.9329 158.002 30.2893 158.257 30.552C158.512 30.8148 158.858 30.9624 159.219 30.9624C159.58 30.9624 159.926 30.8148 160.182 30.552C160.437 30.2893 160.58 29.9329 160.58 29.5613V8.29792C160.58 7.92632 160.724 7.56995 160.979 7.30719C161.234 7.04443 161.58 6.89682 161.941 6.89682C162.302 6.89682 162.648 7.04443 162.903 7.30719C163.159 7.56995 163.302 7.92632 163.302 8.29792V27.0369C163.302 27.4085 163.445 27.7648 163.7 28.0276C163.956 28.2903 164.302 28.438 164.663 28.438C165.024 28.438 165.37 28.2903 165.625 28.0276C165.88 27.7648 166.024 27.4085 166.024 27.0369V9.69909C166.024 9.32749 166.167 8.97112 166.422 8.70836C166.677 8.4456 167.024 8.29799 167.384 8.29799C167.745 8.29799 168.091 8.4456 168.347 8.70836C168.602 8.97112 168.745 9.32749 168.745 9.69909V28.8616C168.745 29.2332 168.889 29.5895 169.144 29.8523C169.399 30.1151 169.745 30.2627 170.106 30.2627C170.467 30.2627 170.813 30.1151 171.068 29.8523C171.324 29.5895 171.467 29.2332 171.467 28.8616V6.7696C171.467 6.39801 171.61 6.04163 171.866 5.77887C172.121 5.51612 172.467 5.3685 172.828 5.3685C173.189 5.3685 173.535 5.51612 173.79 5.77887C174.045 6.04163 174.189 6.39801 174.189 6.7696V30.3048C174.189 30.6764 174.332 31.0328 174.587 31.2956C174.842 31.5583 175.189 31.7059 175.55 31.7059C175.91 31.7059 176.257 31.5583 176.512 31.2956C176.767 31.0328 176.91 30.6764 176.91 30.3048V7.65544C176.91 7.28384 177.054 6.92747 177.309 6.66471C177.564 6.40195 177.91 6.25434 178.271 6.25434C178.632 6.25434 178.978 6.40195 179.233 6.66471C179.489 6.92747 179.632 7.28384 179.632 7.65544V28.6948C179.632 29.0664 179.775 29.4228 180.031 29.6856C180.286 29.9483 180.632 30.0959 180.993 30.0959C181.354 30.0959 181.7 29.9483 181.955 29.6856C182.21 29.4228 182.354 29.0664 182.354 28.6948V8.45791C182.354 8.08631 182.497 7.72994 182.752 7.46718C183.008 7.20442 183.354 7.05681 183.715 7.05681C184.076 7.05681 184.422 7.20442 184.677 7.46718C184.932 7.72994 185.075 8.08631 185.075 8.45791V28.9222C185.075 29.2938 185.219 29.6502 185.474 29.9129C185.729 30.1757 186.075 30.3233 186.436 30.3233C186.797 30.3233 187.143 30.1757 187.399 29.9129C187.654 29.6502 187.797 29.2938 187.797 28.9222V8.61706C187.797 8.24546 187.941 7.88909 188.196 7.62633C188.451 7.36357 188.797 7.21596 189.158 7.21596C189.519 7.21596 189.865 7.36357 190.12 7.62633C190.376 7.88909 190.519 8.24546 190.519 8.61706V28.8506C190.519 29.2222 190.662 29.5786 190.917 29.8414C191.173 30.1041 191.519 30.2517 191.88 30.2517C192.241 30.2517 192.587 30.1041 192.842 29.8414C193.097 29.5786 193.241 29.2222 193.241 28.8506V8.97914C193.241 8.60754 193.384 8.25117 193.639 7.98841C193.894 7.72565 194.24 7.57804 194.601 7.57804C194.962 7.57804 195.308 7.72565 195.564 7.98841C195.819 8.25117 195.962 8.60754 195.962 8.97914V31.8896C195.962 32.2612 196.106 32.6176 196.361 32.8803C196.616 33.1431 196.962 33.2907 197.323 33.2907C197.684 33.2907 198.03 33.1431 198.285 32.8803C198.541 32.6176 198.684 32.2612 198.684 31.8896V6.75697C198.684 6.38538 198.827 6.029 199.083 5.76624C199.338 5.50349 199.684 5.35587 200.045 5.35587C200.406 5.35587 200.752 5.50349 201.007 5.76624C201.262 6.029 201.406 6.38538 201.406 6.75697V26.1325C201.406 26.5041 201.549 26.8605 201.804 27.1232C202.059 27.386 202.406 27.5336 202.767 27.5336C203.127 27.5336 203.474 27.386 203.729 27.1232C203.984 26.8605 204.127 26.5041 204.127 26.1325V9.34795C204.127 8.97636 204.271 8.61998 204.526 8.35723C204.781 8.09447 205.127 7.94685 205.488 7.94685C205.849 7.94685 206.195 8.09447 206.45 8.35723C206.706 8.61998 206.849 8.97636 206.849 9.34795V26.8162C206.849 27.1878 206.992 27.5442 207.248 27.807C207.503 28.0697 207.849 28.2173 208.21 28.2173C208.571 28.2173 208.917 28.0697 209.172 27.807C209.427 27.5442 209.571 27.1878 209.571 26.8162V6.86223C209.571 6.49063 209.714 6.13426 209.969 5.8715C210.225 5.60874 210.571 5.46113 210.932 5.46113C211.293 5.46113 211.639 5.60874 211.894 5.8715C212.149 6.13426 212.292 6.49063 212.292 6.86223V27.4427C212.292 27.8143 212.436 28.1707 212.691 28.4335C212.946 28.6962 213.292 28.8438 213.653 28.8438C214.014 28.8438 214.36 28.6962 214.616 28.4335C214.871 28.1707 215.014 27.8143 215.014 27.4427V8.15056C215.014 7.77897 215.158 7.42259 215.413 7.15983C215.668 6.89708 216.014 6.74946 216.375 6.74946C216.736 6.74946 217.082 6.89708 217.337 7.15983C217.592 7.42259 217.736 7.77897 217.736 8.15056V28.1526C217.736 28.5242 217.879 28.8805 218.134 29.1433C218.39 29.4061 218.736 29.5537 219.097 29.5537C219.458 29.5537 219.804 29.4061 220.059 29.1433C220.314 28.8805 220.458 28.5242 220.458 28.1526V7.54681C220.458 7.17522 220.601 6.81884 220.856 6.55609C221.111 6.29333 221.457 6.14571 221.818 6.14571C222.179 6.14571 222.525 6.29333 222.781 6.55609C223.036 6.81884 223.179 7.17522 223.179 7.54681V28.0322C223.179 28.4038 223.323 28.7601 223.578 29.0229C223.833 29.2856 224.179 29.4333 224.54 29.4333C224.901 29.4333 225.247 29.2856 225.502 29.0229C225.758 28.7601 225.901 28.4038 225.901 28.0322V8.91346C225.901 8.54186 226.044 8.18549 226.3 7.92273C226.555 7.65997 226.901 7.51236 227.262 7.51236C227.623 7.51236 227.969 7.65997 228.224 7.92273C228.479 8.18549 228.623 8.54186 228.623 8.91346V29.2843C228.623 29.6559 228.766 30.0123 229.021 30.275C229.276 30.5378 229.623 30.6854 229.983 30.6854C230.344 30.6854 230.691 30.5378 230.946 30.275C231.201 30.0123 231.344 29.6559 231.344 29.2843V8.68105C231.344 8.30946 231.488 7.95308 231.743 7.69032C231.998 7.42757 232.344 7.27995 232.705 7.27995C233.066 7.27995 233.412 7.42757 233.667 7.69032C233.923 7.95308 234.066 8.30946 234.066 8.68105V31.5283C234.066 31.8999 234.209 32.2563 234.465 32.5191C234.72 32.7818 235.066 32.9294 235.427 32.9294C235.788 32.9294 236.134 32.7818 236.389 32.5191C236.644 32.2563 236.788 31.8999 236.788 31.5283V9.12144C236.788 8.74985 236.931 8.39347 237.186 8.13071C237.442 7.86796 237.788 7.72034 238.149 7.72034C238.51 7.72034 238.856 7.86796 239.111 8.13071C239.366 8.39347 239.509 8.74985 239.509 9.12144V31.3911C239.509 31.7627 239.653 32.1191 239.908 32.3818C240.163 32.6446 240.509 32.7922 240.87 32.7922C241.231 32.7922 241.577 32.6446 241.833 32.3818C242.088 32.1191 242.231 31.7627 242.231 31.3911V6.97759C242.231 6.60599 242.374 6.24962 242.63 5.98686C242.885 5.7241 243.231 5.57649 243.592 5.57649C243.953 5.57649 244.299 5.7241 244.554 5.98686C244.809 6.24962 244.953 6.60599 244.953 6.97759V32.7746C244.953 33.1462 245.096 33.5025 245.351 33.7653C245.607 34.0281 245.953 34.1757 246.314 34.1757C246.675 34.1757 247.021 34.0281 247.276 33.7653C247.531 33.5025 247.675 33.1462 247.675 32.7746V2.43221C247.675 2.06062 247.818 1.70424 248.073 1.44149C248.328 1.17873 248.674 1.03111 249.035 1.03111C249.396 1.03111 249.742 1.17873 249.998 1.44149C250.253 1.70424 250.396 2.06062 250.396 2.43221V28.9896C250.396 29.3612 250.54 29.7175 250.795 29.9803C251.05 30.2431 251.396 30.3907 251.757 30.3907C252.118 30.3907 252.464 30.2431 252.719 29.9803C252.975 29.7175 253.118 29.3612 253.118 28.9896V8.38802C253.118 8.01642 253.261 7.66005 253.516 7.39729C253.772 7.13453 254.118 6.98692 254.479 6.98692C254.84 6.98692 255.186 7.13453 255.441 7.39729C255.696 7.66005 255.84 8.01642 255.84 8.38802V26.7691C255.84 27.1407 255.983 27.4971 256.238 27.7598C256.493 28.0226 256.84 28.1702 257.2 28.1702C257.561 28.1702 257.908 28.0226 258.163 27.7598C258.418 27.4971 258.561 27.1407 258.561 26.7691V8.24992C258.561 7.87833 258.705 7.52195 258.96 7.2592C259.215 6.99644 259.561 6.84882 259.922 6.84882C260.283 6.84882 260.629 6.99644 260.884 7.2592C261.14 7.52195 261.283 7.87833 261.283 8.24992V25.3713C261.283 25.7429 261.426 26.0993 261.682 26.362C261.937 26.6248 262.283 26.7724 262.644 26.7724C263.005 26.7724 263.351 26.6248 263.606 26.362C263.861 26.0993 264.005 25.7429 264.005 25.3713V10.6506C264.005 10.279 264.148 9.92263 264.403 9.65987C264.659 9.39712 265.005 9.2495 265.366 9.2495C265.726 9.2495 266.073 9.39712 266.328 9.65987C266.583 9.92263 266.726 10.279 266.726 10.6506V31.4408C266.726 31.8124 266.87 32.1687 267.125 32.4315C267.38 32.6943 267.726 32.8419 268.087 32.8419C268.448 32.8419 268.794 32.6943 269.05 32.4315C269.305 32.1687 269.448 31.8124 269.448 31.4408V4.66364C269.448 4.29205 269.591 3.93567 269.847 3.67291C270.102 3.41016 270.448 3.26254 270.809 3.26254C271.17 3.26254 271.516 3.41016 271.771 3.67291C272.026 3.93567 272.17 4.29205 272.17 4.66364V29.648C272.17 30.0196 272.313 30.376 272.568 30.6388C272.824 30.9015 273.17 31.0491 273.531 31.0491C273.892 31.0491 274.238 30.9015 274.493 30.6388C274.748 30.376 274.892 30.0196 274.892 29.648V4.00432C274.892 3.63272 275.035 3.27635 275.29 3.01359C275.545 2.75083 275.891 2.60322 276.252 2.60322C276.613 2.60322 276.959 2.75083 277.215 3.01359C277.47 3.27635 277.613 3.63272 277.613 4.00432V28.7984C277.613 29.17 277.757 29.5264 278.012 29.7891C278.267 30.0519 278.613 30.1995 278.974 30.1995C279.335 30.1995 279.681 30.0519 279.936 29.7891C280.192 29.5264 280.335 29.17 280.335 28.7984V8.04783C280.335 7.67624 280.478 7.31986 280.733 7.0571C280.989 6.79435 281.335 6.64673 281.696 6.64673C282.057 6.64673 282.403 6.79435 282.658 7.0571C282.913 7.31986 283.057 7.67624 283.057 8.04783V30.3301C283.057 30.7017 283.2 31.0581 283.455 31.3208C283.71 31.5836 284.057 31.7312 284.417 31.7312C284.778 31.7312 285.125 31.5836 285.38 31.3208C285.635 31.0581 285.778 30.7017 285.778 30.3301V4.9752C285.778 4.6036 285.922 4.24723 286.177 3.98447C286.432 3.72171 286.778 3.5741 287.139 3.5741C287.5 3.5741 287.846 3.72171 288.101 3.98447C288.357 4.24723 288.5 4.6036 288.5 4.9752V27.7804C288.5 28.152 288.643 28.5084 288.899 28.7711C289.154 29.0339 289.5 29.1815 289.861 29.1815C290.222 29.1815 290.568 29.0339 290.823 28.7711C291.078 28.5084 291.222 28.152 291.222 27.7804V7.92658C291.222 7.55498 291.365 7.19861 291.62 6.93585C291.875 6.67309 292.222 6.52548 292.583 6.52548C292.943 6.52548 293.29 6.67309 293.545 6.93585C293.8 7.19861 293.943 7.55498 293.943 7.92658V28.2385C293.943 28.6101 294.087 28.9664 294.342 29.2292C294.597 29.4919 294.943 29.6396 295.304 29.6396C295.665 29.6396 296.011 29.4919 296.267 29.2292C296.522 28.9664 296.665 28.6101 296.665 28.2385V8.95135C296.665 8.57975 296.808 8.22338 297.064 7.96062C297.319 7.69786 297.665 7.55025 298.026 7.55025C298.387 7.55025 298.733 7.69786 298.988 7.96062C299.243 8.22338 299.387 8.57975 299.387 8.95135V27.8435C299.387 28.2151 299.53 28.5715 299.785 28.8343C300.041 29.097 300.387 29.2446 300.748 29.2446C301.109 29.2446 301.455 29.097 301.71 28.8343C301.965 28.5715 302.108 28.2151 302.108 27.8435V8.74252C302.108 8.37093 302.252 8.01455 302.507 7.75179C302.762 7.48904 303.108 7.34142 303.469 7.34142C303.83 7.34142 304.176 7.48904 304.432 7.75179C304.687 8.01455 304.83 8.37093 304.83 8.74252V30.4227C304.83 30.7943 304.974 31.1507 305.229 31.4135C305.484 31.6762 305.83 31.8238 306.191 31.8238C306.552 31.8238 306.898 31.6762 307.153 31.4135C307.409 31.1507 307.552 30.7943 307.552 30.4227V7.40282C307.552 7.03123 307.695 6.67485 307.95 6.4121C308.206 6.14934 308.552 6.00172 308.913 6.00172C309.274 6.00172 309.62 6.14934 309.875 6.4121C310.13 6.67485 310.274 7.03123 310.274 7.40282V27.1295C310.274 27.5011 310.417 27.8575 310.672 28.1202C310.927 28.383 311.274 28.5306 311.634 28.5306C311.995 28.5306 312.341 28.383 312.597 28.1202C312.852 27.8575 312.995 27.5011 312.995 27.1295V9.56352C312.995 9.19192 313.139 8.83555 313.394 8.57279C313.649 8.31003 313.995 8.16242 314.356 8.16242C314.717 8.16242 315.063 8.31003 315.318 8.57279C315.574 8.83555 315.717 9.19192 315.717 9.56352V27.6339C315.717 28.0055 315.86 28.3618 316.116 28.6246C316.371 28.8874 316.717 29.035 317.078 29.035C317.439 29.035 317.785 28.8874 318.04 28.6246C318.295 28.3618 318.439 28.0055 318.439 27.6339V10.4494C318.439 10.0778 318.582 9.72138 318.837 9.45862C319.092 9.19587 319.439 9.04825 319.8 9.04825C320.16 9.04825 320.507 9.19587 320.762 9.45862C321.017 9.72138 321.16 10.0778 321.16 10.4494V32.8621C321.16 33.2337 321.304 33.5901 321.559 33.8529C321.814 34.1156 322.16 34.2632 322.521 34.2632C322.882 34.2632 323.228 34.1156 323.483 33.8529C323.739 33.5901 323.882 33.2337 323.882 32.8621V5.12087C323.882 4.74928 324.025 4.3929 324.281 4.13014C324.536 3.86739 324.882 3.71977 325.243 3.71977C325.604 3.71977 325.95 3.86739 326.205 4.13014C326.46 4.3929 326.604 4.74928 326.604 5.12087V28.7984C326.604 29.17 326.747 29.5264 327.002 29.7891C327.258 30.0519 327.604 30.1995 327.965 30.1995C328.326 30.1995 328.672 30.0519 328.927 29.7891C329.182 29.5264 329.325 29.17 329.325 28.7984V8.28445C329.325 7.91285 329.469 7.55648 329.724 7.29372C329.979 7.03096 330.325 6.88335 330.686 6.88335C331.047 6.88335 331.393 7.03096 331.649 7.29372C331.904 7.55648 332.047 7.91285 332.047 8.28445V29.2279C332.047 29.5995 332.191 29.9558 332.446 30.2186C332.701 30.4814 333.047 30.629 333.408 30.629C333.769 30.629 334.115 30.4814 334.37 30.2186C334.626 29.9558 334.769 29.5995 334.769 29.2279V6.82939C334.769 6.45779 334.912 6.10142 335.167 5.83866C335.423 5.5759 335.769 5.42829 336.13 5.42829C336.491 5.42829 336.837 5.5759 337.092 5.83866C337.347 6.10142 337.491 6.45779 337.491 6.82939V27.6768C337.491 28.0484 337.634 28.4048 337.889 28.6675C338.144 28.9303 338.49 29.0779 338.851 29.0779C339.212 29.0779 339.558 28.9303 339.814 28.6675C340.069 28.4048 340.212 28.0484 340.212 27.6768V7.20157C340.212 6.82998 340.356 6.4736 340.611 6.21085C340.866 5.94809 341.212 5.80047 341.573 5.80047C341.934 5.80047 342.28 5.94809 342.535 6.21085C342.791 6.4736 342.934 6.82998 342.934 7.20157V25.1431C342.934 25.5147 343.077 25.8711 343.333 26.1338C343.588 26.3966 343.934 26.5442 344.295 26.5442C344.656 26.5442 345.002 26.3966 345.257 26.1338C345.512 25.8711 345.656 25.5147 345.656 25.1431V8.12193C345.656 7.75034 345.799 7.39396 346.054 7.1312C346.309 6.86845 346.656 6.72083 347.017 6.72083C347.377 6.72083 347.724 6.86845 347.979 7.1312C348.234 7.39396 348.377 7.75034 348.377 8.12193V28.2932C348.377 28.6648 348.521 29.0212 348.776 29.2839C349.031 29.5467 349.377 29.6943 349.738 29.6943C350.099 29.6943 350.445 29.5467 350.7 29.2839C350.956 29.0212 351.099 28.6648 351.099 28.2932V7.86932C351.099 7.49772 351.242 7.14135 351.498 6.87859C351.753 6.61583 352.099 6.46822 352.46 6.46822C352.821 6.46822 353.167 6.61583 353.422 6.87859C353.677 7.14135 353.821 7.49772 353.821 7.86932V28.4347C353.821 28.8063 353.964 29.1626 354.219 29.4254C354.475 29.6881 354.821 29.8358 355.182 29.8358C355.543 29.8358 355.889 29.6881 356.144 29.4254C356.399 29.1626 356.542 28.8063 356.542 28.4347V7.3203C356.542 6.94871 356.686 6.59233 356.941 6.32957C357.196 6.06682 357.542 5.9192 357.903 5.9192C358.264 5.9192 358.61 6.06682 358.866 6.32957C359.121 6.59233 359.264 6.94871 359.264 7.3203V29.6514C359.264 30.023 359.408 30.3794 359.663 30.6421C359.918 30.9049 360.264 31.0525 360.625 31.0525C360.986 31.0525 361.332 30.9049 361.587 30.6421C361.842 30.3794 361.986 30.023 361.986 29.6514V8.04194C361.986 7.67034 362.129 7.31397 362.384 7.05121C362.64 6.78845 362.986 6.64084 363.347 6.64084C363.708 6.64084 364.054 6.78845 364.309 7.05121C364.564 7.31397 364.708 7.67034 364.708 8.04194V27.6019C364.708 27.9735 364.851 28.3298 365.106 28.5926C365.361 28.8554 365.707 29.003 366.068 29.003C366.429 29.003 366.775 28.8554 367.031 28.5926C367.286 28.3298 367.429 27.9735 367.429 27.6019V9.38753C367.429 9.01593 367.573 8.65956 367.828 8.3968C368.083 8.13404 368.429 7.98643 368.79 7.98643C369.151 7.98643 369.497 8.13404 369.752 8.3968C370.008 8.65956 370.151 9.01593 370.151 9.38753V31.4913C370.151 31.8629 370.294 32.2193 370.55 32.482C370.805 32.7448 371.151 32.8924 371.512 32.8924C371.873 32.8924 372.219 32.7448 372.474 32.482C372.729 32.2193 372.873 31.8629 372.873 31.4913V8.88567C372.873 8.51407 373.016 8.1577 373.271 7.89494C373.526 7.63218 373.873 7.48457 374.233 7.48457C374.594 7.48457 374.941 7.63218 375.196 7.89494C375.451 8.1577 375.594 8.51407 375.594 8.88567V31.3911C375.594 31.7627 375.738 32.1191 375.993 32.3818C376.248 32.6446 376.594 32.7922 376.955 32.7922C377.316 32.7922 377.662 32.6446 377.917 32.3818C378.173 32.1191 378.316 31.7627 378.316 31.3911V8.692C378.316 8.3204 378.459 7.96403 378.715 7.70127C378.97 7.43851 379.316 7.2909 379.677 7.2909C380.038 7.2909 380.384 7.43851 380.639 7.70127C380.894 7.96403 381.038 8.3204 381.038 8.692V28.4987C381.038 28.8702 381.181 29.2266 381.436 29.4894C381.692 29.7521 382.038 29.8998 382.399 29.8998C382.76 29.8998 383.106 29.7521 383.361 29.4894C383.616 29.2266 383.759 28.8702 383.759 28.4987V7.27567C383.759 6.90408 383.903 6.5477 384.158 6.28495C384.413 6.02219 384.759 5.87457 385.12 5.87457C385.481 5.87457 385.827 6.02219 386.083 6.28495C386.338 6.5477 386.481 6.90408 386.481 7.27567V30.0354C386.481 30.407 386.624 30.7634 386.88 31.0261C387.135 31.2889 387.481 31.4365 387.842 31.4365C388.203 31.4365 388.549 31.2889 388.804 31.0261C389.059 30.7634 389.203 30.407 389.203 30.0354V6.43447C389.203 6.06287 389.346 5.7065 389.601 5.44374C389.857 5.18098 390.203 5.03337 390.564 5.03337C390.925 5.03337 391.271 5.18098 391.526 5.44374C391.781 5.7065 391.925 6.06287 391.925 6.43447V28.5652C391.925 28.9368 392.068 29.2931 392.323 29.5559C392.578 29.8187 392.924 29.9663 393.285 29.9663C393.646 29.9663 393.992 29.8187 394.248 29.5559C394.503 29.2931 394.646 28.9368 394.646 28.5652V7.2302C394.646 6.85861 394.79 6.50223 395.045 6.23948C395.3 5.97672 395.646 5.8291 396.007 5.8291C396.368 5.8291 396.714 5.97672 396.969 6.23948C397.225 6.50223 397.368 6.85861 397.368 7.2302V30.0194C397.368 30.391 397.511 30.7474 397.766 31.0101C398.022 31.2729 398.368 31.4205 398.729 31.4205C399.09 31.4205 399.436 31.2729 399.691 31.0101C399.946 30.7474 400.09 30.391 400.09 30.0194V7.35819C400.09 6.9866 400.233 6.63022 400.488 6.36747C400.743 6.10471 401.09 5.95709 401.45 5.95709C401.811 5.95709 402.158 6.10471 402.413 6.36747C402.668 6.63022 402.811 6.9866 402.811 7.35819V29.8527C402.811 30.2243 402.955 30.5806 403.21 30.8434C403.465 31.1062 403.811 31.2538 404.172 31.2538C404.533 31.2538 404.879 31.1062 405.134 30.8434C405.39 30.5806 405.533 30.2243 405.533 29.8527V7.06264C405.533 6.69104 405.676 6.33467 405.932 6.07191C406.187 5.80915 406.533 5.66153 406.894 5.66153C407.255 5.66153 407.601 5.80915 407.856 6.07191C408.111 6.33467 408.255 6.69104 408.255 7.06264V26.5864C408.255 26.958 408.398 27.3143 408.653 27.5771C408.908 27.8398 409.255 27.9875 409.616 27.9875C409.976 27.9875 410.323 27.8398 410.578 27.5771C410.833 27.3143 410.976 26.958 410.976 26.5864V8.83094C410.976 8.45934 411.12 8.10297 411.375 7.84021C411.63 7.57745 411.976 7.42984 412.337 7.42984C412.698 7.42984 413.044 7.57745 413.3 7.84021C413.555 8.10297 413.698 8.45934 413.698 8.83094V28.8068C413.698 29.1784 413.841 29.5348 414.097 29.7976C414.352 30.0603 414.698 30.2079 415.059 30.2079C415.42 30.2079 415.766 30.0603 416.021 29.7976C416.276 29.5348 416.42 29.1784 416.42 28.8068V8.59011C416.42 8.21852 416.563 7.86214 416.818 7.59938C417.074 7.33663 417.42 7.18901 417.781 7.18901C418.142 7.18901 418.488 7.33663 418.743 7.59938C418.998 7.86214 419.142 8.21852 419.142 8.59011V31.5098C419.142 31.8814 419.285 32.2378 419.54 32.5005C419.795 32.7633 420.141 32.9109 420.502 32.9109C420.863 32.9109 421.209 32.7633 421.465 32.5005C421.72 32.2378 421.863 31.8814 421.863 31.5098V5.53769C421.863 5.16609 422.007 4.80972 422.262 4.54696C422.517 4.2842 422.863 4.13659 423.224 4.13659C423.585 4.13659 423.931 4.2842 424.186 4.54696C424.442 4.80972 424.585 5.16609 424.585 5.53769V29.2994C424.585 29.671 424.728 30.0274 424.983 30.2902C425.239 30.5529 425.585 30.7005 425.946 30.7005C426.307 30.7005 426.653 30.5529 426.908 30.2902C427.163 30.0274 427.307 29.671 427.307 29.2994V7.23694C427.307 6.86534 427.45 6.50897 427.705 6.24621C427.96 5.98345 428.307 5.83584 428.667 5.83584C429.028 5.83584 429.375 5.98345 429.63 6.24621C429.885 6.50897 430.028 6.86534 430.028 7.23694V30.1474C430.028 30.519 430.172 30.8754 430.427 31.1381C430.682 31.4009 431.028 31.5485 431.389 31.5485C431.75 31.5485 432.096 31.4009 432.351 31.1381C432.607 30.8754 432.75 30.519 432.75 30.1474V8.33665C432.75 7.96506 432.893 7.60868 433.149 7.34593C433.404 7.08317 433.75 6.93555 434.111 6.93555C434.472 6.93555 434.818 7.08317 435.073 7.34593C435.328 7.60868 435.472 7.96506 435.472 8.33665V29.9908C435.472 30.3624 435.615 30.7187 435.87 30.9815C436.125 31.2442 436.472 31.3919 436.833 31.3919C437.193 31.3919 437.54 31.2442 437.795 30.9815C438.05 30.7187 438.193 30.3624 438.193 29.9908V10.0039C438.193 9.63231 438.337 9.27594 438.592 9.01318C438.847 8.75042 439.193 8.60281 439.554 8.60281C439.915 8.60281 440.261 8.75042 440.517 9.01318C440.772 9.27594 440.915 9.63231 440.915 10.0039V29.5335C440.915 29.9051 441.058 30.2615 441.314 30.5243C441.569 30.787 441.915 30.9346 442.276 30.9346C442.637 30.9346 442.983 30.787 443.238 30.5243C443.493 30.2615 443.637 29.9051 443.637 29.5335V9.13997C443.637 8.76837 443.78 8.412 444.035 8.14924C444.291 7.88648 444.637 7.73887 444.998 7.73887C445.359 7.73887 445.705 7.88648 445.96 8.14924C446.215 8.412 446.358 8.76837 446.358 9.13997V30.469C446.358 30.8406 446.502 31.197 446.757 31.4598C447.012 31.7225 447.358 31.8701 447.719 31.8701C448.08 31.8701 448.426 31.7225 448.682 31.4598C448.937 31.197 449.08 30.8406 449.08 30.469V7.02474C449.08 6.65315 449.224 6.29677 449.479 6.03402C449.734 5.77126 450.08 5.62364 450.441 5.62364C450.802 5.62364 451.148 5.77126 451.403 6.03402C451.659 6.29677 451.802 6.65315 451.802 7.02474V31.4029C451.802 31.7745 451.945 32.1308 452.2 32.3936C452.456 32.6564 452.802 32.804 453.163 32.804C453.524 32.804 453.87 32.6564 454.125 32.3936C454.38 32.1308 454.524 31.7745 454.524 31.4029V11.7781C454.524 11.4065 454.667 11.0501 454.922 10.7874C455.177 10.5246 455.524 10.377 455.884 10.377C456.245 10.377 456.591 10.5246 456.847 10.7874C457.102 11.0501 457.245 11.4065 457.245 11.7781V29.1302C457.245 29.5018 457.389 29.8582 457.644 30.1209C457.899 30.3837 458.245 30.5313 458.606 30.5313C458.967 30.5313 459.313 30.3837 459.568 30.1209C459.824 29.8582 459.967 29.5018 459.967 29.1302V7.28746C459.967 6.91587 460.11 6.55949 460.366 6.29673C460.621 6.03398 460.967 5.88636 461.328 5.88636C461.689 5.88636 462.035 6.03398 462.29 6.29673C462.545 6.55949 462.689 6.91587 462.689 7.28746V28.2014C462.689 28.573 462.832 28.9294 463.087 29.1921C463.342 29.4549 463.689 29.6025 464.05 29.6025C464.41 29.6025 464.757 29.4549 465.012 29.1921C465.267 28.9294 465.41 28.573 465.41 28.2014V6.62224C465.41 6.25065 465.554 5.89427 465.809 5.63152C466.064 5.36876 466.41 5.22114 466.771 5.22114C467.132 5.22114 467.478 5.36876 467.733 5.63152C467.989 5.89427 468.132 6.25065 468.132 6.62224V27.3897C468.132 27.7613 468.275 28.1176 468.531 28.3804C468.786 28.6432 469.132 28.7908 469.493 28.7908C469.854 28.7908 470.2 28.6432 470.455 28.3804C470.71 28.1176 470.854 27.7613 470.854 27.3897V7.5325C470.854 7.1609 470.997 6.80453 471.252 6.54177C471.508 6.27901 471.854 6.1314 472.215 6.1314C472.576 6.1314 472.922 6.27901 473.177 6.54177C473.432 6.80453 473.575 7.1609 473.575 7.5325V26.2091C473.575 26.5807 473.719 26.9371 473.974 27.1999C474.229 27.4626 474.575 27.6102 474.936 27.6102C475.297 27.6102 475.643 27.4626 475.899 27.1999C476.154 26.9371 476.297 26.5807 476.297 26.2091V9.76561C476.297 9.39401 476.441 9.03764 476.696 8.77488C476.951 8.51212 477.297 8.36451 477.658 8.36451C478.019 8.36451 478.365 8.51212 478.62 8.77488C478.875 9.03764 479.019 9.39401 479.019 9.76561V29.2919C479.019 29.6635 479.162 30.0198 479.417 30.2826C479.673 30.5453 480.019 30.693 480.38 30.693C480.741 30.693 481.087 30.5453 481.342 30.2826C481.597 30.0198 481.741 29.6635 481.741 29.2919V6.91191C481.741 6.54031 481.884 6.18394 482.139 5.92118C482.394 5.65842 482.74 5.51081 483.101 5.51081C483.462 5.51081 483.808 5.65842 484.064 5.92118C484.319 6.18394 484.462 6.54031 484.462 6.91191V31.0223C484.462 31.3939 484.606 31.7502 484.861 32.013C485.116 32.2758 485.462 32.4234 485.823 32.4234C486.184 32.4234 486.53 32.2758 486.785 32.013C487.041 31.7502 487.184 31.3939 487.184 31.0223V8.32487C487.184 7.95327 487.327 7.59689 487.583 7.33414C487.838 7.07138 488.184 6.92376 488.545 6.92376C488.906 6.92376 489.252 7.07138 489.507 7.33414C489.762 7.59689 489.906 7.95327 489.906 8.32487V31.077C489.906 31.4486 490.049 31.805 490.304 32.0677C490.559 32.3305 490.906 32.4781 491.267 32.4781C491.627 32.4781 491.974 32.3305 492.229 32.0677C492.484 31.805 492.627 31.4486 492.627 31.077V9.21491C492.627 8.84332 492.771 8.48694 493.026 8.22418C493.281 7.96143 493.627 7.81381 493.988 7.81381C494.349 7.81381 494.695 7.96143 494.95 8.22418C495.206 8.48694 495.349 8.84332 495.349 9.21491V30.5482C495.349 30.9198 495.492 31.2762 495.748 31.5389C496.003 31.8017 496.349 31.9493 496.71 31.9493C497.071 31.9493 497.417 31.8017 497.672 31.5389C497.927 31.2762 498.071 30.9198 498.071 30.5482V8.93619C498.071 8.5646 498.214 8.20822 498.469 7.94546C498.725 7.68271 499.071 7.53509 499.432 7.53509C499.793 7.53509 500.139 7.68271 500.394 7.94546C500.649 8.20822 500.792 8.5646 500.792 8.93619V29.4695C500.792 29.8411 500.936 30.1975 501.191 30.4603C501.446 30.723 501.792 30.8706 502.153 30.8706C502.514 30.8706 502.86 30.723 503.116 30.4603C503.371 30.1975 503.514 29.8411 503.514 29.4695V8.16067C503.514 7.78907 503.658 7.4327 503.913 7.16994C504.168 6.90718 504.514 6.75957 504.875 6.75957C505.236 6.75957 505.582 6.90718 505.837 7.16994C506.092 7.4327 506.236 7.78907 506.236 8.16067V28.87C506.236 29.2416 506.379 29.598 506.634 29.8607C506.89 30.1235 507.236 30.2711 507.597 30.2711C507.958 30.2711 508.304 30.1235 508.559 29.8607C508.814 29.598 508.958 29.2416 508.958 28.87V9.2368C508.958 8.86521 509.101 8.50883 509.356 8.24608C509.611 7.98332 509.957 7.8357 510.318 7.8357C510.679 7.8357 511.025 7.98332 511.281 8.24608C511.536 8.50883 511.679 8.86521 511.679 9.2368V26.6369C511.679 27.0085 511.823 27.3649 512.078 27.6276C512.333 27.8904 512.679 28.038 513.04 28.038C513.401 28.038 513.747 27.8904 514.002 27.6276C514.258 27.3649 514.401 27.0085 514.401 26.6369V9.55005C514.401 9.17845 514.544 8.82208 514.8 8.55932C515.055 8.29656 515.401 8.14894 515.762 8.14894C516.123 8.14894 516.469 8.29656 516.724 8.55932C516.979 8.82208 517.123 9.17845 517.123 9.55005V26.6495C517.123 27.0211 517.266 27.3775 517.521 27.6402C517.776 27.903 518.123 28.0506 518.483 28.0506C518.844 28.0506 519.191 27.903 519.446 27.6402C519.701 27.3775 519.844 27.0211 519.844 26.6495V9.08439C519.844 8.7128 519.988 8.35642 520.243 8.09367C520.498 7.83091 520.844 7.68329 521.205 7.68329C521.566 7.68329 521.912 7.83091 522.167 8.09367C522.423 8.35642 522.566 8.7128 522.566 9.08439V30.2712C522.566 30.6428 522.709 30.9991 522.965 31.2619C523.22 31.5246 523.566 31.6723 523.927 31.6723C524.288 31.6723 524.634 31.5246 524.889 31.2619C525.144 30.9991 525.288 30.6428 525.288 30.2712V8.47391C525.288 8.10231 525.431 7.74594 525.686 7.48318C525.942 7.22042 526.288 7.07281 526.649 7.07281C527.01 7.07281 527.356 7.22042 527.611 7.48318C527.866 7.74594 528.009 8.10231 528.009 8.47391V31.2277C528.009 31.5993 528.153 31.9557 528.408 32.2185C528.663 32.4812 529.009 32.6288 529.37 32.6288C529.731 32.6288 530.077 32.4812 530.333 32.2185C530.588 31.9557 530.731 31.5993 530.731 31.2277V8.07815C530.731 7.70655 530.874 7.35017 531.13 7.08742C531.385 6.82466 531.731 6.67705 532.092 6.67705C532.453 6.67705 532.799 6.82466 533.054 7.08742C533.309 7.35017 533.453 7.70655 533.453 8.07815V27.7113C533.453 28.0829 533.596 28.4393 533.851 28.7021C534.107 28.9648 534.453 29.1124 534.814 29.1124C535.175 29.1124 535.521 28.9648 535.776 28.7021C536.031 28.4393 536.175 28.0829 536.175 27.7113V7.10558C536.175 6.73398 536.318 6.37761 536.573 6.11485C536.828 5.85209 537.174 5.70448 537.535 5.70448C537.896 5.70448 538.242 5.85209 538.498 6.11485C538.753 6.37761 538.896 6.73398 538.896 7.10558V30.7073C538.896 31.0789 539.04 31.4353 539.295 31.6981C539.55 31.9608 539.896 32.1084 540.257 32.1084C540.618 32.1084 540.964 31.9608 541.219 31.6981C541.475 31.4353 541.618 31.0789 541.618 30.7073V6.93801C541.618 6.56642 541.761 6.21004 542.016 5.94728C542.272 5.68453 542.618 5.53691 542.979 5.53691C543.34 5.53691 543.686 5.68453 543.941 5.94728C544.196 6.21004 544.34 6.56642 544.34 6.93801V30.9524C544.34 31.324 544.483 31.6804 544.738 31.9431C544.993 32.2059 545.34 32.3535 545.7 32.3535C546.061 32.3535 546.408 32.2059 546.663 31.9431C546.918 31.6804 547.061 31.324 547.061 30.9524V8.93282C547.061 8.56123 547.205 8.20485 547.46 7.9421C547.715 7.67934 548.061 7.53172 548.422 7.53172C548.783 7.53172 549.129 7.67934 549.384 7.9421C549.64 8.20485 549.783 8.56123 549.783 8.93282V29.1689C549.783 29.5405 549.926 29.8969 550.182 30.1596C550.437 30.4224 550.783 30.57 551.144 30.57C551.505 30.57 551.851 30.4224 552.106 30.1596C552.361 29.8969 552.505 29.5405 552.505 29.1689V7.86006C552.505 7.48846 552.648 7.13208 552.903 6.86933C553.158 6.60657 553.505 6.45895 553.866 6.45895C554.226 6.45895 554.573 6.60657 554.828 6.86933C555.083 7.13208 555.226 7.48846 555.226 7.86006V27.0545C555.226 27.4261 555.37 27.7825 555.625 28.0453C555.88 28.308 556.226 28.4556 556.587 28.4556C556.948 28.4556 557.294 28.308 557.55 28.0453C557.805 27.7825 557.948 27.4261 557.948 27.0545V6.46815C557.948 6.09655 558.091 5.74018 558.347 5.47742C558.602 5.21466 558.948 5.06705 559.309 5.06705C559.67 5.06705 560.016 5.21466 560.271 5.47742C560.526 5.74018 560.67 6.09655 560.67 6.46815V26.2799C560.67 26.6515 560.813 27.0078 561.068 27.2706C561.324 27.5333 561.67 27.681 562.031 27.681C562.392 27.681 562.738 27.5333 562.993 27.2706C563.248 27.0078 563.392 26.6515 563.392 26.2799V5.3036C563.392 4.932 563.535 4.57563 563.79 4.31287C564.045 4.05011 564.391 3.9025 564.752 3.9025C565.113 3.9025 565.459 4.05011 565.715 4.31287C565.97 4.57563 566.113 4.932 566.113 5.3036V26.0458C566.113 26.4174 566.257 26.7737 566.512 27.0365C566.767 27.2993 567.113 27.4469 567.474 27.4469C567.835 27.4469 568.181 27.2993 568.436 27.0365C568.692 26.7737 568.835 26.4174 568.835 26.0458V9.79676C568.835 9.42517 568.978 9.06879 569.233 8.80604C569.489 8.54328 569.835 8.39566 570.196 8.39566C570.557 8.39566 570.903 8.54328 571.158 8.80604C571.413 9.06879 571.557 9.42517 571.557 9.79676V18C571.557 18.3716 571.7 18.728 571.955 18.9907C572.21 19.2535 572.557 19.4011 572.917 19.4011C573.278 19.4011 573.625 19.2535 573.88 18.9907C574.135 18.728 574.278 18.3716 574.278 18C574.278 17.6284 574.422 17.272 574.677 17.0093C574.932 16.7465 575.278 16.5989 575.639 16.5989C576 16.5989 576.346 16.7465 576.601 17.0093C576.857 17.272 577 17.6284 577 18" stroke="#333333" stroke-width="1.17987"/>
</svg>
